mp2 – STA 9750 2024 Submission Material
…
Warning in left_join(select(filter(bio_anime_movies, vote_quantile > 3), : Detected an unexpected many-to-many relationship between `x` and `y`.
ℹ Row 1 of `x` matches multiple rows in `y`.
ℹ Row 142341 of `y` matches multiple rows in `x`.
ℹ If a many-to-many relationship is expected, set `relationship =
  "many-to-many"` to silence this warning.

sample_n(bio_anime_movies,100)|>DT::datatable()

####Task 5: >Identify (at least) two actors and one director who you will target as the key talent for your movie. Write a short “pitch” as to why they are likely to be successful. You should support your pitch with at least one graphic and one table.

bio_anime_movies|>select(primaryName,primaryTitle)|>distinct()|>
  group_by(primaryName)|>
  summarize(count=n())|>ungroup()|>arrange(desc(count))

# A tibble: 41,171 × 2
   primaryName        count
   <chr>              <int>
 1 Mary Hidalgo          45
 2 Megumi Hayashibara    44
 3 Takeshi Seyama        37
 4 Leslee Feldman        36
 5 Ikue Ôtani            35
 6 Avy Kaufman           33
 7 Ruth Lambert          32
 8 Kappei Yamaguchi      31
 9 Mary Vernieu          31
10 Minami Takayama       30
# ℹ 41,161 more rows
…
